[gd_scene load_steps=2 format=2]

[ext_resource path="res://data/scripts/Bullet.gd" type="Script" id=1]

[node name="Bullet" type="KinematicBody2D"]
collision_layer = 2
script = ExtResource( 1 )

[node name="CollisionPolygon2D" type="CollisionPolygon2D" parent="." groups=[
"Bullet",
"Hurts",
]]
polygon = PoolVector2Array( 0, 0, 0, 1, 1, 1, 1, 0 )

[node name="BulletRect" type="ColorRect" parent="." groups=[
"Bullet",
"Hurts",
]]
margin_right = 1.0
margin_bottom = 1.0
color = Color( 0.262745, 0.321569, 0.239216, 1 )
__meta__ = {
"_edit_use_anchors_": false
}
