[gd_scene load_steps=5 format=2]

[ext_resource path="res://data/sprites/animated/button/button2.png" type="Texture" id=1]
[ext_resource path="res://data/scripts/Button.gd" type="Script" id=2]
[ext_resource path="res://data/sprites/animated/button/button1.png" type="Texture" id=3]

[sub_resource type="SpriteFrames" id=1]
animations = [ {
"frames": [ ExtResource( 3 ), ExtResource( 1 ) ],
"loop": true,
"name": "default",
"speed": 5.0
} ]

[node name="Button" type="Node2D"]
script = ExtResource( 2 )

[node name="Sprite" type="AnimatedSprite" parent="."]
frames = SubResource( 1 )
centered = false

[node name="Area2D" type="Area2D" parent="."]

[node name="CollisionPolygon2D" type="CollisionPolygon2D" parent="Area2D"]
polygon = PoolVector2Array( 1, 0, 1, 2, 1, 3, 5, 3, 5, 0 )
[connection signal="body_entered" from="Area2D" to="." method="body_entered"]
