[gd_scene load_steps=2 format=2]

[ext_resource path="res://data/sprites/cactuses.png" type="Texture" id=1]

[node name="CactusSmall3" type="Sprite" groups=[
"Cactus",
"Hurts",
]]
texture = ExtResource( 1 )
centered = false
region_enabled = true
region_rect = Rect2( 9, 2, 6, 9 )

[node name="StaticBody2D" type="StaticBody2D" parent="." groups=[
"Cactus",
"Hurts",
]]
position = Vector2( 3, 4 )

[node name="CollisionPolygon2D" type="CollisionPolygon2D" parent="StaticBody2D" groups=[
"Cactus",
"Hurts",
]]
position = Vector2( 0, -0.0197191 )
polygon = PoolVector2Array( -1, -2.98028, 1, -2.98028, 1, -1.98028, 2, -2.98028, 3, -0.980281, 1, -0.980281, 1.0352, 5.00287, -1.03087, 4.99182, -1, 1.01972, -3, 1.01972, -2.98963, -2.42097, -2, -2.98028, -1, -2.98028 )
