[gd_scene load_steps=2 format=2]

[ext_resource path="res://data/sprites/cactuses.png" type="Texture" id=1]

[node name="CactusSmall5" type="Sprite" groups=[
"Cactus",
"Hurts",
]]
texture = ExtResource( 1 )
centered = false
region_enabled = true
region_rect = Rect2( 31, 0, 6, 9 )

[node name="StaticBody2D" type="StaticBody2D" parent="." groups=[
"Cactus",
"Hurts",
]]
position = Vector2( 3, 4 )

[node name="CollisionPolygon2D" type="CollisionPolygon2D" parent="StaticBody2D" groups=[
"Cactus",
"Hurts",
]]
position = Vector2( 0, -0.0197191 )
polygon = PoolVector2Array( -2, -1.98028, -3, -0.980281, -3, 1.01972, -1, 1.01972, -1, 5.01972, 1, 5.01972, 1, 3.01972, 3, 3.01972, 3, 2.01972, 2, 1.01972, 1, 1.01972, 1, -2.98028, -1, -2.98028, -1, -1.98028 )

[node name="cactuses" type="Sprite" parent="."]
visible = false
position = Vector2( -31, 12 )
texture = ExtResource( 1 )
centered = false
