[gd_scene load_steps=7 format=2]

[ext_resource path="res://data/sprites/animated/DynamiteBoss/0.png" type="Texture" id=1]
[ext_resource path="res://data/sprites/animated/DynamiteBoss/1.png" type="Texture" id=2]
[ext_resource path="res://data/scripts/DynamiteBoss.gd" type="Script" id=3]

[sub_resource type="SpriteFrames" id=1]
animations = [ {
"frames": [ ExtResource( 1 ), ExtResource( 2 ) ],
"loop": true,
"name": "default",
"speed": 5.0
} ]

[sub_resource type="RectangleShape2D" id=2]
extents = Vector2( 2, 7 )

[sub_resource type="RectangleShape2D" id=3]
extents = Vector2( 3, 8 )

[node name="DynamiteBoss" type="Node2D" groups=[
"Hurts",
]]
script = ExtResource( 3 )

[node name="AnimatedSprite" type="AnimatedSprite" parent="." groups=[
"Hurts",
]]
frames = SubResource( 1 )

[node name="StaticBody2D" type="StaticBody2D" parent="." groups=[
"Hurts",
]]
collision_layer = 4

[node name="CollisionShape2D" type="CollisionShape2D" parent="StaticBody2D" groups=[
"Hurts",
]]
position = Vector2( 3, 0 )
shape = SubResource( 2 )

[node name="Area2D" type="Area2D" parent="." groups=[
"Hurts",
]]
position = Vector2( 1.88988, -0.236237 )
collision_mask = 2

[node name="CollisionShape2D" type="CollisionShape2D" parent="Area2D" groups=[
"Hurts",
]]
position = Vector2( 1.11012, 0.236237 )
shape = SubResource( 3 )
[connection signal="body_entered" from="Area2D" to="." method="hurt"]
