[gd_scene load_steps=3 format=2]

[ext_resource path="res://data/sprites/animated/DynamiteBoss/0.png" type="Texture" id=1]
[ext_resource path="res://data/scripts/Dynamite.gd" type="Script" id=2]

[node name="Dynamite" type="KinematicBody2D"]
script = ExtResource( 2 )

[node name="Sprite" type="Sprite" parent="."]
texture = ExtResource( 1 )
region_enabled = true
region_rect = Rect2( 0, 1, 4, 8 )

[node name="CollisionPolygon2D" type="CollisionPolygon2D" parent="."]
polygon = PoolVector2Array( 0, -1, 0, 4, 2, 4, 2, -1 )
