[gd_scene load_steps=2 format=2]

[ext_resource path="res://data/scenes/GameOver.tscn" type="PackedScene" id=1]

[node name="GameOverView" type="Node2D"]

[node name="ViewportContainer" type="ViewportContainer" parent="."]
anchor_right = 1.0
anchor_bottom = 1.0
margin_right = 840.0
margin_bottom = 480.0
stretch = true
stretch_shrink = 10
__meta__ = {
"_edit_use_anchors_": false
}

[node name="Viewport" type="Viewport" parent="ViewportContainer"]
size = Vector2( 84, 48 )
size_override_stretch = true
own_world = true
handle_input_locally = false
render_target_update_mode = 3

[node name="GameOver" parent="ViewportContainer/Viewport" instance=ExtResource( 1 )]
